{
    "data":{
        "Monday": {
            "pairs": [
                {"08:00" : "Администрирование в ИС, У708(Заикин П.В)", 
                "09:40" : "Методы оптимизации, У606(Шайторова И.А) / ООП, У601(Павлов С.И)", 
                "11:20" : "ООП, У601(Павлов С.И) / Методы оптимизации, У606(Шайторова И.А)",
                "13:20" : "ООП, У505(Павлов С.И)"}
            ]
        },
        "Tuesday": {
            "pairs": [
                {"08:00" : "Сети ЭВМ, У708(Павлов С.И)", 
                "09:40" : "Сети ЭВМ, У606(Павлов С.И) / Мультимедиа технологии, А417(Фёдоров Д.А)", 
                "11:20" : "Мультимедиа технологии, А417(Фёдоров Д.А) / Сети ЭВМ, У606(Павлов С.И)",
                "13:20" : "Мультимедиа технологии, А417(Фёдоров Д.А)"}
            ]},
        "Thursday": {
            "pairs": [
                {"08:00" : "Методы оптимизации, У903(Шайторова И.А)", 
                "09:40" : "Администрирование в ИС, У606(Берестин Д.К) / Инт. системы и технологии, У607(Шайторова И.А)", 
                "11:20" : "Инт. системы и технологии, У607(Шайторова И.А) / Администрирование в ИС, У606(Берестин Д.К)",
                "13:20" : "Инт. системы и технологии, У506(Шайторова И.А)"}
            ]},
        "Friday": {
            "pairs": [
                {"13:20" : "Комп. графика, У704(Быковских Д.А)",
                "15:00" : " / Комп. графика, У705(Быковских Д.А)", 
                "16:30" : " / Комп. графика, У705(Быковских Д.А)"}]}
    }
}